<?xml version="1.0" standalone="no"?>
<!DOCTYPE svg PUBLIC "-//W3C//DTD SVG 1.1//EN" "http://www.w3.org/Graphics/SVG/1.1/DTD/svg11.dtd" >
<!--
2013-9-30: Created.
-->
<svg>
<metadata>
Created by iconfont
</metadata>
<defs>

<font id="iconfont" horiz-adv-x="1024" >
  <font-face
    font-family="iconfont"
    font-weight="500"
    font-stretch="normal"
    units-per-em="1024"
    ascent="896"
    descent="-128"
  />
    <missing-glyph />
    
    <glyph glyph-name="yingxiaozuozhanshi" unicode="&#58926;" d="M484.48 99.39200000000005l170.304 94.464v-212.608l-170.432-96.64v0.384L43.776 136.32000000000005V648.192l2.56-1.536L485.056 896l191.424-102.72-445.952-255.424v-298.624l254.08-138.304v-1.536zM749.824 542.976l188.16 105.216v-507.712l-167.68-100.928V365.82399999999996l-54.016-37.376v195.84l-175.104 96.64 220.8 126.592 175.36-99.328-187.52-105.216zM662.208 496.832V300.15999999999997l-172.224-106.24-168.832 105.408V491.264l-1.984 1.152 170.944 100.672L662.848 497.28l-0.64-0.384z"  horiz-adv-x="1024" />

    
    <glyph glyph-name="sousuo1" unicode="&#58927;" d="M1009.088-19.583999999999946l-182.656 179.264a457.216 457.216 0 0 1 93.12 276.544A459.776 459.776 0 1 1 0 436.224a459.776 459.776 0 0 1 459.776-459.776 457.472 457.472 0 0 1 304.64 116.032L947.2-87.03999999999996c17.92-17.6 46.336-16.896 63.424 1.728a47.744 47.744 0 0 1-1.6 65.728zM459.776 57.60000000000002a378.624 378.624 0 1 0 0 757.312 378.624 378.624 0 0 0 0-757.312z"  horiz-adv-x="1024" />

    
    <glyph glyph-name="shujujiqiren" unicode="&#58928;" d="M841.185882 140.047059H633.675294a30.238118 30.238118 0 0 0-30.117647 30.117647v33.671529h178.718118c16.564706 0 30.117647 13.552941 30.117647 30.117647V711.378824c0 16.564706-13.552941 30.117647-30.117647 30.117647H633.675294V805.647059C633.675294 838.836706 606.629647 865.882353 573.44 865.882353H451.764706c-33.249882 0-60.235294-27.045647-60.235294-60.295529v-64.090353H237.628235c-16.624941 0-30.117647-13.552941-30.117647-30.117647v-477.424942c0-16.564706 13.492706-30.117647 30.117647-30.117647H421.647059v-33.731764c0-16.504471-13.552941-30.117647-30.117647-30.117647H179.260235c-16.564706 0-30.117647-13.552941-30.117647-30.117648v-177.091764c0-16.564706 13.552941-30.117647 30.117647-30.117647h661.865412c16.564706 0 30.117647 13.552941 30.117647 30.117647v177.091764c0 16.564706-13.552941 30.117647-30.117647 30.117648z m-147.57647 335.149176a60.295529 60.295529 0 1 0-120.530824 0 60.295529 60.295529 0 0 0 120.591059 0zM451.885176 805.526588l0.060236 0.060236H573.44v-64.090353H451.824941V805.526588zM334.125176 475.196235a60.295529 60.295529 0 1 0 120.591059 0 60.295529 60.295529 0 0 0-120.591059 0zM903.890824 599.521882V350.870588a30.117647 30.117647 0 0 0-60.235295 0V599.642353a30.117647 30.117647 0 0 0 60.235295 0zM993.882353 537.298824v-120.71153a30.117647 30.117647 0 1 0-60.295529 0V537.298824a30.117647 30.117647 0 0 0 60.295529 0zM150.226824 320.69270600000004a30.117647 30.117647 0 0 0-30.117648 30.117647V599.642353a30.117647 30.117647 0 0 0 60.235295 0v-248.771765a30.117647 30.117647 0 0 0-30.117647-30.117647zM90.413176 537.298824v-120.71153a30.117647 30.117647 0 0 0-60.295529 0V537.298824a30.117647 30.117647 0 0 0 60.295529 0z"  horiz-adv-x="1024" />

    
    <glyph glyph-name="jingxuanyingyong" unicode="&#58929;" d="M639.260444 331.94666700000005c-129.649778 0-128.284444-1.422222-128.284444-136.647111v-136.647112a136.647111 136.647111 0 0 1 136.647111-136.647111h136.647111a136.647111 136.647111 0 0 1 136.647111 136.647111v136.647112a136.647111 136.647111 0 0 1-136.647111 136.647111h-145.066666z m-333.255111 0H169.358222A136.647111 136.647111 0 0 1 32.711111 195.29955600000005v-136.647112a136.647111 136.647111 0 0 1 136.647111-136.647111h136.647111a136.647111 136.647111 0 0 1 136.647111 136.647111v136.647112c0 132.437333-4.209778 136.647111-136.647111 136.647111z m0 478.264889H169.358222A136.647111 136.647111 0 0 1 32.711111 673.564444v-136.647111a136.647111 136.647111 0 0 1 136.647111-136.647111h136.647111l34.133334-0.056889c103.708444 0 102.513778 5.916444 102.513777 136.704V673.564444a136.647111 136.647111 0 0 1-136.647111 136.647112zM761.287111 843.776a136.533333 136.533333 0 0 1-44.373333-7.395556l-129.251556-44.373333a136.590222 136.590222 0 0 1-84.764444-173.624889l44.259555-129.251555c28.16-81.976889 37.888-112.184889 73.557334-112.184889 21.162667 0 51.427556 10.638222 100.067555 27.306666l129.194667 44.373334a136.647111 136.647111 0 0 1 84.935111 173.568l-44.373333 129.308444A136.704 136.704 0 0 1 761.287111 843.776"  horiz-adv-x="1024" />

    
    <glyph glyph-name="shaixuanxialajiantou" unicode="&#59024;" d="M1444.181333 779.434667a85.333333 85.333333 0 0 0 122.197334-118.954667L902.314667-21.674667a85.333333 85.333333 0 0 0-122.026667-0.341333L109.738667 660.138667a85.333333 85.333333 0 0 0 121.856 119.637333l609.28-619.861333L1444.181333 779.434667z"  horiz-adv-x="1706" />

    
    <glyph glyph-name="mianbaoxie" unicode="&#59026;" d="M765.952 384a78.848 78.848 0 0 0-20.992-56.7296L416.4608-61.0304a89.9072 89.9072 0 0 0-125.44-11.9808 89.9072 89.9072 0 0 0-11.9808 125.44L559.8208 384 279.04 715.4688A86.8352 86.8352 0 0 0 291.0208 840.9088a86.8352 86.8352 0 0 0 125.44-11.8784l328.4992-388.3008A78.848 78.848 0 0 0 765.8496 384z"  horiz-adv-x="1024" />

    


  </font>
</defs></svg>
